doi,year,type,member,publisher
10.1371/journal.pone.0254784,2021,journal-article,340,Public Library of Science (PLoS)
10.1371/journal.pone.0219843,2019,journal-article,340,Public Library of Science (PLoS)
10.1371/journal.pone.0067701,2013,journal-article,340,Public Library of Science (PLoS)
10.1371/journal.pone.0111476,2014,journal-article,340,Public Library of Science (PLoS)
10.1371/journal.pone.0097430,2014,journal-article,340,Public Library of Science (PLoS)
10.1371/journal.pone.0139715,2015,journal-article,340,Public Library of Science (PLoS)
10.1371/journal.pone.0202178,2018,journal-article,340,Public Library of Science (PLoS)
10.1371/journal.pone.0200563,2018,journal-article,340,Public Library of Science (PLoS)
10.1371/journal.pone.0015245,2010,journal-article,340,Public Library of Science (PLoS)
10.1371/journal.ppat.1000335,2009,journal-article,340,Public Library of Science (PLoS)
10.1371/journal.pone.0240768,2021,journal-article,340,Public Library of Science (PLoS)
10.1371/journal.pone.0093073,2014,journal-article,340,Public Library of Science (PLoS)
10.1371/journal.pone.0142777,2015,journal-article,340,Public Library of Science (PLoS)
10.1371/journal.pone.0253305,2021,journal-article,340,Public Library of Science (PLoS)
10.1371/journal.pone.0207457,2018,journal-article,340,Public Library of Science (PLoS)
10.1371/journal.ppat.1004290,2014,journal-article,340,Public Library of Science (PLoS)
10.1371/journal.pone.0161086,2016,journal-article,340,Public Library of Science (PLoS)
10.1371/journal.pmed.1000391,2011,journal-article,340,Public Library of Science (PLoS)
10.1371/journal.pone.0169429,2017,journal-article,340,Public Library of Science (PLoS)
10.1371/journal.pone.0180960,2017,journal-article,340,Public Library of Science (PLoS)
10.1371/journal.pone.0074627,2013,journal-article,340,Public Library of Science (PLoS)
10.1371/journal.pone.0109343,2014,journal-article,340,Public Library of Science (PLoS)
10.1371/journal.pcbi.1004416,2015,journal-article,340,Public Library of Science (PLoS)
10.1371/journal.pone.0054903,2013,journal-article,340,Public Library of Science (PLoS)
10.1371/journal.pone.0175004,2017,journal-article,340,Public Library of Science (PLoS)
10.1371/journal.pone.0227830,2020,journal-article,340,Public Library of Science (PLoS)
10.1371/journal.pone.0053578,2013,journal-article,340,Public Library of Science (PLoS)
10.1371/journal.pcbi.1000479,2009,journal-article,340,Public Library of Science (PLoS)
10.1371/journal.pone.0186517,2017,journal-article,340,Public Library of Science (PLoS)
10.1371/journal.pone.0206700,2018,journal-article,340,Public Library of Science (PLoS)
10.1371/journal.pntd.0003667,2015,journal-article,340,Public Library of Science (PLoS)
10.1371/journal.pone.0154088,2016,journal-article,340,Public Library of Science (PLoS)
10.1371/journal.pone.0050906,2012,journal-article,340,Public Library of Science (PLoS)
10.1371/journal.pone.0235615,2020,journal-article,340,Public Library of Science (PLoS)
10.1371/journal.pone.0202297,2018,journal-article,340,Public Library of Science (PLoS)
10.1371/journal.pone.0239610,2020,journal-article,340,Public Library of Science (PLoS)
10.1371/journal.pone.0142204,2015,journal-article,340,Public Library of Science (PLoS)
10.1371/journal.pone.0208394,2018,journal-article,340,Public Library of Science (PLoS)
10.1371/journal.pone.0110631,2014,journal-article,340,Public Library of Science (PLoS)
10.1371/journal.pone.0193020,2018,journal-article,340,Public Library of Science (PLoS)
10.1371/journal.pone.0144212,2015,journal-article,340,Public Library of Science (PLoS)
10.1371/journal.pone.0038985,2012,journal-article,340,Public Library of Science (PLoS)
10.1371/journal.pone.0213611,2019,journal-article,340,Public Library of Science (PLoS)
10.1371/journal.pone.0220286,2019,journal-article,340,Public Library of Science (PLoS)
10.1371/journal.pone.0107678,2014,journal-article,340,Public Library of Science (PLoS)
10.1371/journal.pone.0072461,2013,journal-article,340,Public Library of Science (PLoS)
10.1371/journal.pone.0208229,2019,journal-article,340,Public Library of Science (PLoS)
10.1371/journal.pone.0127720,2015,journal-article,340,Public Library of Science (PLoS)
10.1371/journal.pone.0100810,2014,journal-article,340,Public Library of Science (PLoS)
10.1371/journal.pone.0015768,2011,journal-article,340,Public Library of Science (PLoS)
10.1371/journal.pone.0048726,2012,journal-article,340,Public Library of Science (PLoS)
10.1371/journal.pone.0002046,2008,journal-article,340,Public Library of Science (PLoS)
10.1371/journal.pone.0185451,2017,journal-article,340,Public Library of Science (PLoS)
10.1371/journal.pone.0160212,2016,journal-article,340,Public Library of Science (PLoS)
10.1371/journal.pone.0180997,2017,journal-article,340,Public Library of Science (PLoS)
10.1371/journal.pgen.1008628,2020,journal-article,340,Public Library of Science (PLoS)
10.1371/journal.pone.0155996,2016,journal-article,340,Public Library of Science (PLoS)
10.1371/journal.pone.0097937,2014,journal-article,340,Public Library of Science (PLoS)
10.1371/journal.pone.0208210,2018,journal-article,340,Public Library of Science (PLoS)
10.1371/journal.pone.0156496,2016,journal-article,340,Public Library of Science (PLoS)
10.1371/journal.pone.0077246,2013,journal-article,340,Public Library of Science (PLoS)
10.1371/journal.pone.0084142,2013,journal-article,340,Public Library of Science (PLoS)
10.1371/journal.pntd.0005460,2017,journal-article,340,Public Library of Science (PLoS)
10.1371/journal.pone.0038338,2012,journal-article,340,Public Library of Science (PLoS)
10.1371/journal.pone.0170346,2017,journal-article,340,Public Library of Science (PLoS)
10.1371/journal.pone.0209326,2018,journal-article,340,Public Library of Science (PLoS)
10.1371/journal.pone.0010861,2010,journal-article,340,Public Library of Science (PLoS)
10.1371/journal.pgen.1009263,2021,journal-article,340,Public Library of Science (PLoS)
10.1371/journal.pone.0067850,2013,journal-article,340,Public Library of Science (PLoS)
10.1371/journal.pone.0021360,2011,journal-article,340,Public Library of Science (PLoS)
10.1371/journal.pone.0068003,2013,journal-article,340,Public Library of Science (PLoS)
10.1371/journal.pone.0158942,2016,journal-article,340,Public Library of Science (PLoS)
10.1371/journal.pone.0217946,2019,journal-article,340,Public Library of Science (PLoS)
10.1371/journal.pone.0129132,2015,journal-article,340,Public Library of Science (PLoS)
10.1371/journal.pone.0122699,2015,journal-article,340,Public Library of Science (PLoS)
10.1371/journal.pone.0005196,2009,journal-article,340,Public Library of Science (PLoS)
10.1371/journal.pone.0135141,2015,journal-article,340,Public Library of Science (PLoS)
10.1371/journal.pone.0168976,2016,journal-article,340,Public Library of Science (PLoS)
10.1371/journal.pone.0124527,2015,journal-article,340,Public Library of Science (PLoS)
10.1371/journal.pgen.1000809,2010,journal-article,340,Public Library of Science (PLoS)
10.1371/journal.pone.0035767,2012,journal-article,340,Public Library of Science (PLoS)
10.1371/journal.pone.0117648,2015,journal-article,340,Public Library of Science (PLoS)
10.1371/journal.pone.0171496,2017,journal-article,340,Public Library of Science (PLoS)
10.1371/annotation/ab9e87d9-f59c-4dab-aea5-a3c1116d3d85,2010,journal-article,340,Public Library of Science (PLoS)
10.1371/journal.pone.0180992,2017,journal-article,340,Public Library of Science (PLoS)
10.1371/journal.pone.0224026,2019,journal-article,340,Public Library of Science (PLoS)
10.1371/journal.pone.0082559,2013,journal-article,340,Public Library of Science (PLoS)
10.1371/journal.pone.0250438,2021,journal-article,340,Public Library of Science (PLoS)
10.1371/journal.pone.0084999,2014,journal-article,340,Public Library of Science (PLoS)
10.1371/journal.pone.0042469,2012,journal-article,340,Public Library of Science (PLoS)
10.1371/journal.pone.0095665,2014,journal-article,340,Public Library of Science (PLoS)
10.1371/journal.pone.0077994,2013,journal-article,340,Public Library of Science (PLoS)
10.1371/journal.pmed.0040259,2007,journal-article,340,Public Library of Science (PLoS)
10.1371/journal.pone.0150015,2016,journal-article,340,Public Library of Science (PLoS)
10.1371/journal.pone.0148057,2016,journal-article,340,Public Library of Science (PLoS)
10.1371/journal.ppat.1002122,2011,journal-article,340,Public Library of Science (PLoS)
10.1371/journal.pone.0071450,2013,journal-article,340,Public Library of Science (PLoS)
10.1371/journal.pone.0188337,2017,journal-article,340,Public Library of Science (PLoS)
10.1371/journal.pbio.0040152,2006,journal-article,340,Public Library of Science (PLoS)
10.1371/journal.pone.0246768,2021,journal-article,340,Public Library of Science (PLoS)
10.1371/journal.pone.0048347,2012,journal-article,340,Public Library of Science (PLoS)
10.1371/journal.pone.0167841,2016,journal-article,340,Public Library of Science (PLoS)
10.1371/journal.pone.0150233,2016,journal-article,340,Public Library of Science (PLoS)
10.1371/journal.pone.0187035,2017,journal-article,340,Public Library of Science (PLoS)
10.1371/journal.ppat.1005009,2015,journal-article,340,Public Library of Science (PLoS)
10.1371/journal.pone.0220871,2019,journal-article,340,Public Library of Science (PLoS)
10.1371/journal.pone.0035978,2012,journal-article,340,Public Library of Science (PLoS)
10.1371/journal.pone.0058863,2013,journal-article,340,Public Library of Science (PLoS)
10.1371/journal.pbio.0020014,2004,journal-article,340,Public Library of Science (PLoS)
10.1371/journal.pone.0139994,2015,journal-article,340,Public Library of Science (PLoS)
10.1371/journal.pone.0057245,2013,journal-article,340,Public Library of Science (PLoS)
10.1371/journal.pone.0094183,2014,journal-article,340,Public Library of Science (PLoS)
10.1371/journal.pone.0180594,2017,journal-article,340,Public Library of Science (PLoS)
10.1371/journal.pgen.1006073,2016,journal-article,340,Public Library of Science (PLoS)
10.1371/journal.pone.0019039,2011,journal-article,340,Public Library of Science (PLoS)
10.1371/journal.pone.0126613,2015,journal-article,340,Public Library of Science (PLoS)
10.1371/journal.pone.0006146,2009,journal-article,340,Public Library of Science (PLoS)
10.1371/journal.pcbi.1007155,2019,journal-article,340,Public Library of Science (PLoS)
10.1371/journal.pcbi.1007168,2019,journal-article,340,Public Library of Science (PLoS)
10.1371/journal.pone.0168341,2016,journal-article,340,Public Library of Science (PLoS)
10.1371/journal.pone.0002933,2008,journal-article,340,Public Library of Science (PLoS)
10.1371/journal.pcbi.1005185,2016,journal-article,340,Public Library of Science (PLoS)
10.1371/journal.pone.0218410,2019,journal-article,340,Public Library of Science (PLoS)
10.1371/journal.pone.0063023,2013,journal-article,340,Public Library of Science (PLoS)
10.1371/journal.pone.0015178,2010,journal-article,340,Public Library of Science (PLoS)
10.1371/journal.pone.0145042,2015,journal-article,340,Public Library of Science (PLoS)
10.1371/journal.pone.0072772,2013,journal-article,340,Public Library of Science (PLoS)
10.1371/journal.pone.0088474,2014,journal-article,340,Public Library of Science (PLoS)
10.1371/journal.pone.0238304,2020,journal-article,340,Public Library of Science (PLoS)
10.1371/journal.pone.0222187,2019,journal-article,340,Public Library of Science (PLoS)
10.1371/journal.pone.0187691,2017,journal-article,340,Public Library of Science (PLoS)
10.1371/journal.pone.0029941,2012,journal-article,340,Public Library of Science (PLoS)
10.1371/journal.pone.0172122,2017,journal-article,340,Public Library of Science (PLoS)
10.1371/journal.pone.0101976,2014,journal-article,340,Public Library of Science (PLoS)
10.1371/journal.pbio.0020248,2004,journal-article,340,Public Library of Science (PLoS)
10.1371/journal.pone.0040253,2012,journal-article,340,Public Library of Science (PLoS)
10.1371/journal.pone.0181224,2017,journal-article,340,Public Library of Science (PLoS)
10.1371/journal.pone.0139648,2015,journal-article,340,Public Library of Science (PLoS)
10.1371/journal.pbio.1001059,2011,journal-article,340,Public Library of Science (PLoS)
10.1371/journal.pone.0012748,2010,journal-article,340,Public Library of Science (PLoS)
10.1371/journal.pone.0182380,2017,journal-article,340,Public Library of Science (PLoS)
10.1371/journal.pone.0188642,2017,journal-article,340,Public Library of Science (PLoS)
10.1371/journal.pone.0125024,2015,journal-article,340,Public Library of Science (PLoS)
10.1371/journal.pone.0255061,2021,journal-article,340,Public Library of Science (PLoS)
10.1371/journal.pone.0126578,2015,journal-article,340,Public Library of Science (PLoS)
10.1371/journal.pcbi.1007405,2020,journal-article,340,Public Library of Science (PLoS)
10.1371/journal.pone.0072559,2013,journal-article,340,Public Library of Science (PLoS)
10.1371/journal.pone.0089529,2014,journal-article,340,Public Library of Science (PLoS)
10.1371/journal.pone.0238511,2020,journal-article,340,Public Library of Science (PLoS)
10.1371/journal.pcbi.0020112,2006,journal-article,340,Public Library of Science (PLoS)
10.1371/journal.pone.0026611,2011,journal-article,340,Public Library of Science (PLoS)
10.1371/journal.pone.0109657,2014,journal-article,340,Public Library of Science (PLoS)
10.1371/journal.pone.0078776,2013,journal-article,340,Public Library of Science (PLoS)
10.1371/journal.pone.0195706,2018,journal-article,340,Public Library of Science (PLoS)
10.1371/journal.pone.0188103,2017,journal-article,340,Public Library of Science (PLoS)
10.1371/journal.pone.0054880,2013,journal-article,340,Public Library of Science (PLoS)
10.1371/journal.pgen.1005913,2016,journal-article,340,Public Library of Science (PLoS)
10.1371/journal.pone.0113563,2014,journal-article,340,Public Library of Science (PLoS)
10.1371/journal.pone.0138418,2016,journal-article,340,Public Library of Science (PLoS)
10.1371/journal.pone.0180772,2017,journal-article,340,Public Library of Science (PLoS)
10.1371/journal.pone.0230257,2020,journal-article,340,Public Library of Science (PLoS)
10.1371/journal.pone.0241240,2021,journal-article,340,Public Library of Science (PLoS)
10.1371/journal.pone.0005728,2009,journal-article,340,Public Library of Science (PLoS)
10.1371/journal.pgen.1006533,2016,journal-article,340,Public Library of Science (PLoS)
10.1371/journal.pone.0096328,2014,journal-article,340,Public Library of Science (PLoS)
10.1371/journal.pone.0017101,2011,journal-article,340,Public Library of Science (PLoS)
10.1371/journal.pone.0181398,2017,journal-article,340,Public Library of Science (PLoS)
10.1371/journal.pone.0204921,2018,journal-article,340,Public Library of Science (PLoS)
10.1371/journal.pone.0185753,2017,journal-article,340,Public Library of Science (PLoS)
10.1371/journal.pone.0006480,2009,journal-article,340,Public Library of Science (PLoS)
10.1371/journal.pone.0004970,2009,journal-article,340,Public Library of Science (PLoS)
10.1371/journal.pone.0125856,2015,journal-article,340,Public Library of Science (PLoS)
10.1371/annotation/eff399e1-51e0-43b1-bdf4-1a11e9ada9bd,2010,journal-article,340,Public Library of Science (PLoS)
10.1371/journal.pone.0006309,2009,journal-article,340,Public Library of Science (PLoS)
10.1371/journal.pone.0200080,2018,journal-article,340,Public Library of Science (PLoS)
10.1371/journal.pbio.2001096,2016,journal-article,340,Public Library of Science (PLoS)
10.1371/journal.pone.0022423,2011,journal-article,340,Public Library of Science (PLoS)
10.1371/journal.pone.0067397,2013,journal-article,340,Public Library of Science (PLoS)
10.1371/journal.pone.0045750,2012,journal-article,340,Public Library of Science (PLoS)
10.1371/journal.pgen.1004711,2014,journal-article,340,Public Library of Science (PLoS)
10.1371/journal.pone.0234723,2020,journal-article,340,Public Library of Science (PLoS)
10.1371/journal.pone.0102225,2014,journal-article,340,Public Library of Science (PLoS)
10.1371/journal.pone.0036926,2012,journal-article,340,Public Library of Science (PLoS)
10.1371/journal.pone.0251870,2021,journal-article,340,Public Library of Science (PLoS)
10.1371/journal.pone.0021374,2011,journal-article,340,Public Library of Science (PLoS)
10.1371/journal.pone.0135618,2015,journal-article,340,Public Library of Science (PLoS)
10.1371/journal.pone.0068176,2013,journal-article,340,Public Library of Science (PLoS)
10.1371/journal.pgen.1002719,2012,journal-article,340,Public Library of Science (PLoS)
10.1371/journal.pone.0241813,2020,journal-article,340,Public Library of Science (PLoS)
10.1371/journal.pone.0171863,2017,journal-article,340,Public Library of Science (PLoS)
10.1371/journal.pone.0243069,2020,journal-article,340,Public Library of Science (PLoS)
10.1371/journal.pone.0089750,2014,journal-article,340,Public Library of Science (PLoS)
10.1371/journal.pone.0188464,2017,journal-article,340,Public Library of Science (PLoS)
10.1371/journal.pone.0162103,2016,journal-article,340,Public Library of Science (PLoS)
10.1371/journal.pone.0132589,2015,journal-article,340,Public Library of Science (PLoS)
10.1371/journal.pone.0230177,2020,journal-article,340,Public Library of Science (PLoS)
10.1371/journal.pone.0157692,2016,journal-article,340,Public Library of Science (PLoS)
10.1371/journal.pone.0092378,2014,journal-article,340,Public Library of Science (PLoS)
10.1371/journal.pone.0087041,2014,journal-article,340,Public Library of Science (PLoS)
10.1371/journal.pone.0067751,2013,journal-article,340,Public Library of Science (PLoS)
10.1371/journal.pone.0082465,2013,journal-article,340,Public Library of Science (PLoS)
10.1371/journal.pone.0172487,2017,journal-article,340,Public Library of Science (PLoS)
10.1371/journal.pone.0047448,2013,journal-article,340,Public Library of Science (PLoS)
10.1371/journal.pone.0165842,2016,journal-article,340,Public Library of Science (PLoS)
10.1371/journal.pcbi.1004286,2015,journal-article,340,Public Library of Science (PLoS)
10.1371/journal.pone.0125070,2015,journal-article,340,Public Library of Science (PLoS)
10.1371/journal.pone.0234974,2020,journal-article,340,Public Library of Science (PLoS)
10.1371/journal.pone.0030953,2012,journal-article,340,Public Library of Science (PLoS)
10.1371/journal.pone.0046669,2012,journal-article,340,Public Library of Science (PLoS)
10.1371/journal.pone.0021317,2011,journal-article,340,Public Library of Science (PLoS)
10.1371/journal.pone.0069423,2013,journal-article,340,Public Library of Science (PLoS)
10.1371/journal.pone.0164591,2016,journal-article,340,Public Library of Science (PLoS)
10.1371/journal.pmed.0050182,2008,journal-article,340,Public Library of Science (PLoS)
10.1371/journal.pone.0241640,2020,journal-article,340,Public Library of Science (PLoS)
10.1371/journal.pone.0027924,2011,journal-article,340,Public Library of Science (PLoS)
10.1371/journal.pone.0055383,2013,journal-article,340,Public Library of Science (PLoS)
10.1371/journal.pone.0104066,2014,journal-article,340,Public Library of Science (PLoS)
10.1371/journal.pone.0207417,2018,journal-article,340,Public Library of Science (PLoS)
10.1371/journal.pone.0252543,2021,journal-article,340,Public Library of Science (PLoS)
10.1371/journal.pone.0076863,2013,journal-article,340,Public Library of Science (PLoS)
10.1371/journal.pone.0218549,2019,journal-article,340,Public Library of Science (PLoS)
10.1371/journal.pgen.1009574,2021,journal-article,340,Public Library of Science (PLoS)
10.1371/journal.pcbi.1006510,2018,journal-article,340,Public Library of Science (PLoS)
10.1371/journal.pone.0051541,2012,journal-article,340,Public Library of Science (PLoS)
10.1371/annotation/3ba18ef8-8c9c-45ab-9bc5-ad571a54a28c,2014,journal-article,340,Public Library of Science (PLoS)
10.1371/journal.pone.0256289,2021,journal-article,340,Public Library of Science (PLoS)
10.1371/journal.pone.0062182,2013,journal-article,340,Public Library of Science (PLoS)
10.1371/journal.pone.0148848,2016,journal-article,340,Public Library of Science (PLoS)
10.1371/journal.pone.0067232,2013,journal-article,340,Public Library of Science (PLoS)
10.1371/journal.pone.0159640,2016,journal-article,340,Public Library of Science (PLoS)
10.1371/journal.pone.0240262,2020,journal-article,340,Public Library of Science (PLoS)
10.1371/journal.pone.0168734,2017,journal-article,340,Public Library of Science (PLoS)
10.1371/journal.pone.0102307,2014,journal-article,340,Public Library of Science (PLoS)
10.1371/journal.pone.0215767,2019,journal-article,340,Public Library of Science (PLoS)
10.1371/journal.pone.0224701,2019,journal-article,340,Public Library of Science (PLoS)
10.1371/journal.pone.0223544,2019,journal-article,340,Public Library of Science (PLoS)
10.1371/journal.pone.0216538,2019,journal-article,340,Public Library of Science (PLoS)
10.1371/journal.pgen.0020177,2006,journal-article,340,Public Library of Science (PLoS)
10.1371/journal.pone.0139905,2015,journal-article,340,Public Library of Science (PLoS)
10.1371/journal.pone.0252606,2021,journal-article,340,Public Library of Science (PLoS)
10.1371/journal.pone.0086909,2014,journal-article,340,Public Library of Science (PLoS)
10.1371/journal.pone.0241942,2021,journal-article,340,Public Library of Science (PLoS)
10.1371/journal.pone.0179790,2017,journal-article,340,Public Library of Science (PLoS)
10.1371/journal.pone.0199860,2018,journal-article,340,Public Library of Science (PLoS)
10.1371/journal.pone.0156890,2016,journal-article,340,Public Library of Science (PLoS)
10.1371/journal.pone.0027925,2011,journal-article,340,Public Library of Science (PLoS)
10.1371/journal.pone.0117809,2015,journal-article,340,Public Library of Science (PLoS)
10.1371/journal.pbio.0020307,2004,journal-article,340,Public Library of Science (PLoS)
10.1371/journal.pone.0238346,2020,journal-article,340,Public Library of Science (PLoS)
10.1371/journal.pone.0025140,2011,journal-article,340,Public Library of Science (PLoS)
10.1371/journal.pntd.0006222,2018,journal-article,340,Public Library of Science (PLoS)
10.1371/journal.pone.0145272,2015,journal-article,340,Public Library of Science (PLoS)
10.1371/journal.pmed.1001635,2014,journal-article,340,Public Library of Science (PLoS)
10.1371/journal.pone.0024844,2011,journal-article,340,Public Library of Science (PLoS)
10.1371/journal.pone.0132284,2015,journal-article,340,Public Library of Science (PLoS)
10.1371/journal.pone.0240118,2020,journal-article,340,Public Library of Science (PLoS)
10.1371/journal.ppat.1008193,2019,journal-article,340,Public Library of Science (PLoS)
10.1371/journal.pone.0196338,2018,journal-article,340,Public Library of Science (PLoS)
10.1371/journal.pmed.1000156,2009,journal-article,340,Public Library of Science (PLoS)
10.1371/journal.pone.0108887,2014,journal-article,340,Public Library of Science (PLoS)
10.1371/journal.pone.0080677,2013,journal-article,340,Public Library of Science (PLoS)
10.1371/journal.pone.0111645,2014,journal-article,340,Public Library of Science (PLoS)
10.1371/journal.pone.0064756,2013,journal-article,340,Public Library of Science (PLoS)
10.1371/journal.pone.0188202,2017,journal-article,340,Public Library of Science (PLoS)
10.1371/journal.pone.0116663,2015,journal-article,340,Public Library of Science (PLoS)
10.1371/journal.pone.0040867,2012,journal-article,340,Public Library of Science (PLoS)
10.1371/journal.pone.0164414,2016,journal-article,340,Public Library of Science (PLoS)
10.1371/journal.pone.0013615,2010,journal-article,340,Public Library of Science (PLoS)
10.1371/currents.md.28266819ca0ec5fefcac767ea9a3461c,2015,journal-article,340,Public Library of Science (PLoS)
10.1371/journal.pone.0098714,2014,journal-article,340,Public Library of Science (PLoS)
10.1371/journal.pone.0024594,2011,journal-article,340,Public Library of Science (PLoS)
10.1371/journal.pone.0204183,2018,journal-article,340,Public Library of Science (PLoS)
10.1371/annotation/5cfe7c14-9385-427b-ac34-7e893af0cb8c,2012,journal-article,340,Public Library of Science (PLoS)
10.1371/journal.pone.0087916,2014,journal-article,340,Public Library of Science (PLoS)
10.1371/journal.pone.0197821,2018,journal-article,340,Public Library of Science (PLoS)
10.1371/journal.ppat.1003069,2012,journal-article,340,Public Library of Science (PLoS)
10.1371/journal.pone.0188341,2017,journal-article,340,Public Library of Science (PLoS)
10.1371/journal.pone.0256825,2021,journal-article,340,Public Library of Science (PLoS)
10.1371/journal.pone.0022389,2011,journal-article,340,Public Library of Science (PLoS)
10.1371/journal.pone.0142466,2015,journal-article,340,Public Library of Science (PLoS)
10.1371/journal.pone.0031613,2012,journal-article,340,Public Library of Science (PLoS)
10.1371/journal.pone.0107893,2014,journal-article,340,Public Library of Science (PLoS)
10.1371/journal.pbio.0030245,2005,journal-article,340,Public Library of Science (PLoS)
10.1371/journal.pntd.0003184,2014,journal-article,340,Public Library of Science (PLoS)
10.1371/journal.pone.0082534,2013,journal-article,340,Public Library of Science (PLoS)
10.1371/journal.pone.0222068,2019,journal-article,340,Public Library of Science (PLoS)
10.1371/journal.pone.0053536,2013,journal-article,340,Public Library of Science (PLoS)
10.1371/journal.pone.0023771,2011,journal-article,340,Public Library of Science (PLoS)
10.1371/journal.pone.0156974,2016,journal-article,340,Public Library of Science (PLoS)
10.1371/journal.pone.0046724,2012,journal-article,340,Public Library of Science (PLoS)
10.1371/journal.pmed.1001910,2015,journal-article,340,Public Library of Science (PLoS)
10.1371/journal.pone.0081237,2014,journal-article,340,Public Library of Science (PLoS)
10.1371/journal.pone.0105661,2014,journal-article,340,Public Library of Science (PLoS)
10.1371/journal.pgen.1000051,2008,journal-article,340,Public Library of Science (PLoS)
10.1371/journal.pone.0094830,2014,journal-article,340,Public Library of Science (PLoS)
10.1371/journal.pone.0161247,2016,journal-article,340,Public Library of Science (PLoS)
10.1371/journal.ppat.1005059,2015,journal-article,340,Public Library of Science (PLoS)
10.1371/journal.pone.0067429,2013,journal-article,340,Public Library of Science (PLoS)
10.1371/journal.pone.0169629,2017,journal-article,340,Public Library of Science (PLoS)
10.1371/journal.pcbi.1007279,2019,journal-article,340,Public Library of Science (PLoS)
10.1371/journal.pone.0187722,2017,journal-article,340,Public Library of Science (PLoS)
10.1371/journal.pntd.0008510,2020,journal-article,340,Public Library of Science (PLoS)
10.1371/journal.pone.0035370,2012,journal-article,340,Public Library of Science (PLoS)
10.1371/journal.pone.0116485,2015,journal-article,340,Public Library of Science (PLoS)
10.1371/journal.pone.0169959,2017,journal-article,340,Public Library of Science (PLoS)
10.1371/journal.pone.0244821,2020,journal-article,340,Public Library of Science (PLoS)
10.1371/journal.ppat.1008435,2020,journal-article,340,Public Library of Science (PLoS)
10.1371/journal.pone.0186568,2017,journal-article,340,Public Library of Science (PLoS)
10.1371/journal.pgen.1003809,2013,journal-article,340,Public Library of Science (PLoS)
10.1371/journal.pone.0151670,2016,journal-article,340,Public Library of Science (PLoS)
10.1371/journal.pone.0055302,2013,journal-article,340,Public Library of Science (PLoS)
10.1371/journal.pone.0249104,2021,journal-article,340,Public Library of Science (PLoS)
10.1371/journal.pone.0066267,2013,journal-article,340,Public Library of Science (PLoS)
10.1371/journal.pone.0016094,2011,journal-article,340,Public Library of Science (PLoS)
10.1371/journal.pone.0240534,2020,journal-article,340,Public Library of Science (PLoS)
10.1371/journal.pone.0009857,2010,journal-article,340,Public Library of Science (PLoS)
10.1371/journal.pone.0158622,2016,journal-article,340,Public Library of Science (PLoS)
10.1371/journal.pntd.0001369,2011,journal-article,340,Public Library of Science (PLoS)
10.1371/journal.pgen.1005629,2015,journal-article,340,Public Library of Science (PLoS)
10.1371/journal.pone.0224366,2019,journal-article,340,Public Library of Science (PLoS)
10.1371/journal.pone.0130007,2015,journal-article,340,Public Library of Science (PLoS)
10.1371/journal.pone.0248629,2021,journal-article,340,Public Library of Science (PLoS)
10.1371/journal.pone.0142377,2015,journal-article,340,Public Library of Science (PLoS)
10.1371/journal.pone.0255044,2021,journal-article,340,Public Library of Science (PLoS)
10.1371/journal.pgen.1005095,2015,journal-article,340,Public Library of Science (PLoS)
10.1371/journal.pone.0055378,2013,journal-article,340,Public Library of Science (PLoS)
10.1371/journal.pone.0002910,2008,journal-article,340,Public Library of Science (PLoS)
10.1371/journal.pone.0101272,2014,journal-article,340,Public Library of Science (PLoS)
10.1371/journal.pone.0218051,2019,journal-article,340,Public Library of Science (PLoS)
10.1371/journal.pone.0029086,2012,journal-article,340,Public Library of Science (PLoS)
10.1371/journal.pone.0177705,2017,journal-article,340,Public Library of Science (PLoS)
10.1371/journal.pone.0022398,2011,journal-article,340,Public Library of Science (PLoS)
10.1371/journal.pone.0164387,2016,journal-article,340,Public Library of Science (PLoS)
10.1371/currents.outbreaks.9a6530ab7bb9096b34143230ab01cdef,2015,journal-article,340,Public Library of Science (PLoS)
10.1371/journal.pcbi.1009053,2021,journal-article,340,Public Library of Science (PLoS)
10.1371/journal.pone.0055475,2013,journal-article,340,Public Library of Science (PLoS)
10.1371/journal.pntd.0007749,2019,journal-article,340,Public Library of Science (PLoS)
10.1371/journal.pone.0063805,2013,journal-article,340,Public Library of Science (PLoS)
10.1371/journal.pone.0109772,2014,journal-article,340,Public Library of Science (PLoS)
10.1371/journal.pntd.0001335,2011,journal-article,340,Public Library of Science (PLoS)
10.1371/journal.pone.0035089,2012,journal-article,340,Public Library of Science (PLoS)
10.1371/journal.pone.0089665,2014,journal-article,340,Public Library of Science (PLoS)
10.1371/journal.pone.0019866,2011,journal-article,340,Public Library of Science (PLoS)
10.1371/journal.pone.0099549,2014,journal-article,340,Public Library of Science (PLoS)
10.1371/journal.pcbi.1006076,2018,journal-article,340,Public Library of Science (PLoS)
10.1371/journal.pntd.0008635,2020,journal-article,340,Public Library of Science (PLoS)
10.1371/journal.pone.0181667,2017,journal-article,340,Public Library of Science (PLoS)
10.1371/journal.pgen.1000296,2008,journal-article,340,Public Library of Science (PLoS)
10.1371/journal.pone.0157871,2016,journal-article,340,Public Library of Science (PLoS)
10.1371/journal.pone.0052323,2013,journal-article,340,Public Library of Science (PLoS)
10.1371/journal.pone.0192148,2018,journal-article,340,Public Library of Science (PLoS)
10.1371/journal.pcbi.1008174,2020,journal-article,340,Public Library of Science (PLoS)
10.1371/journal.pone.0082643,2013,journal-article,340,Public Library of Science (PLoS)
10.1371/journal.pone.0186977,2017,journal-article,340,Public Library of Science (PLoS)
10.1371/journal.pone.0256514,2021,journal-article,340,Public Library of Science (PLoS)
10.1371/journal.pone.0237929,2020,journal-article,340,Public Library of Science (PLoS)
10.1371/journal.pone.0037005,2012,journal-article,340,Public Library of Science (PLoS)
10.1371/journal.pcbi.1004786,2016,journal-article,340,Public Library of Science (PLoS)
10.1371/journal.pone.0044297,2012,journal-article,340,Public Library of Science (PLoS)
10.1371/journal.pone.0096682,2014,journal-article,340,Public Library of Science (PLoS)
10.1371/journal.pone.0253982,2021,journal-article,340,Public Library of Science (PLoS)
10.1371/journal.pone.0055805,2013,journal-article,340,Public Library of Science (PLoS)
10.1371/journal.pone.0024687,2011,journal-article,340,Public Library of Science (PLoS)
10.1371/journal.pone.0177682,2017,journal-article,340,Public Library of Science (PLoS)
10.1371/journal.pone.0199010,2018,journal-article,340,Public Library of Science (PLoS)
10.1371/journal.pcbi.1002335,2012,journal-article,340,Public Library of Science (PLoS)
10.1371/journal.pone.0081939,2013,journal-article,340,Public Library of Science (PLoS)
10.1371/journal.pone.0104657,2014,journal-article,340,Public Library of Science (PLoS)
10.1371/journal.pone.0063354,2013,journal-article,340,Public Library of Science (PLoS)
10.1371/journal.pone.0217416,2019,journal-article,340,Public Library of Science (PLoS)
10.1371/journal.pone.0255355,2021,journal-article,340,Public Library of Science (PLoS)
10.1371/journal.pone.0014573,2011,journal-article,340,Public Library of Science (PLoS)
10.1371/journal.pgen.1009266,2020,journal-article,340,Public Library of Science (PLoS)
10.1371/journal.pone.0035344,2012,journal-article,340,Public Library of Science (PLoS)
10.1371/journal.pone.0163974,2016,journal-article,340,Public Library of Science (PLoS)
10.1371/journal.pone.0164357,2016,journal-article,340,Public Library of Science (PLoS)
10.1371/journal.pone.0194671,2018,journal-article,340,Public Library of Science (PLoS)
10.1371/journal.pcbi.1004828,2016,journal-article,340,Public Library of Science (PLoS)
10.1371/journal.pone.0083864,2013,journal-article,340,Public Library of Science (PLoS)
10.1371/journal.pone.0169136,2017,journal-article,340,Public Library of Science (PLoS)
10.1371/journal.pone.0204063,2018,journal-article,340,Public Library of Science (PLoS)
10.1371/journal.pone.0216859,2019,journal-article,340,Public Library of Science (PLoS)
10.1371/journal.pone.0186992,2017,journal-article,340,Public Library of Science (PLoS)
10.1371/journal.pone.0210820,2019,journal-article,340,Public Library of Science (PLoS)
10.1371/journal.pone.0170304,2017,journal-article,340,Public Library of Science (PLoS)
10.1371/journal.pone.0149982,2016,journal-article,340,Public Library of Science (PLoS)
10.1371/journal.pntd.0007678,2019,journal-article,340,Public Library of Science (PLoS)
10.1371/journal.pone.0139236,2015,journal-article,340,Public Library of Science (PLoS)
10.1371/journal.pone.0011465,2010,journal-article,340,Public Library of Science (PLoS)
10.1371/journal.pone.0048419,2012,journal-article,340,Public Library of Science (PLoS)
10.1371/journal.pbio.1001927,2014,journal-article,340,Public Library of Science (PLoS)
10.1371/journal.pone.0155631,2016,journal-article,340,Public Library of Science (PLoS)
10.1371/journal.pone.0009794,2010,journal-article,340,Public Library of Science (PLoS)
10.1371/journal.pone.0191613,2018,journal-article,340,Public Library of Science (PLoS)
10.1371/journal.pone.0200472,2018,journal-article,340,Public Library of Science (PLoS)
10.1371/journal.pone.0090506,2014,journal-article,340,Public Library of Science (PLoS)
10.1371/journal.pone.0203620,2018,journal-article,340,Public Library of Science (PLoS)
10.1371/journal.pone.0164832,2016,journal-article,340,Public Library of Science (PLoS)
10.1371/journal.pcbi.1000821,2010,journal-article,340,Public Library of Science (PLoS)
10.1371/journal.pone.0210513,2019,journal-article,340,Public Library of Science (PLoS)
10.1371/journal.pone.0145221,2015,journal-article,340,Public Library of Science (PLoS)
10.1371/journal.pone.0172787,2017,journal-article,340,Public Library of Science (PLoS)
10.1371/journal.ppat.1008733,2020,journal-article,340,Public Library of Science (PLoS)
10.1371/journal.pone.0131810,2015,journal-article,340,Public Library of Science (PLoS)
10.1371/journal.pone.0086902,2014,journal-article,340,Public Library of Science (PLoS)
10.1371/journal.pone.0151978,2016,journal-article,340,Public Library of Science (PLoS)
10.1371/journal.pone.0211298,2019,journal-article,340,Public Library of Science (PLoS)
10.1371/journal.pone.0147925,2016,journal-article,340,Public Library of Science (PLoS)
10.1371/journal.ppat.1007798,2019,journal-article,340,Public Library of Science (PLoS)
10.1371/journal.pone.0124484,2015,journal-article,340,Public Library of Science (PLoS)
10.1371/journal.pone.0082359,2013,journal-article,340,Public Library of Science (PLoS)
10.1371/journal.pone.0152066,2016,journal-article,340,Public Library of Science (PLoS)
10.1371/journal.pone.0047385,2012,journal-article,340,Public Library of Science (PLoS)
10.1371/journal.pbio.3000225,2019,journal-article,340,Public Library of Science (PLoS)
10.1371/journal.pone.0135214,2015,journal-article,340,Public Library of Science (PLoS)
10.1371/journal.pone.0250510,2021,journal-article,340,Public Library of Science (PLoS)
10.1371/journal.pone.0180874,2017,journal-article,340,Public Library of Science (PLoS)
10.1371/journal.pone.0205222,2018,journal-article,340,Public Library of Science (PLoS)
10.1371/journal.pone.0133060,2015,journal-article,340,Public Library of Science (PLoS)
10.1371/journal.pone.0013099,2010,journal-article,340,Public Library of Science (PLoS)
10.1371/journal.pone.0047386,2012,journal-article,340,Public Library of Science (PLoS)
10.1371/journal.pone.0143706,2015,journal-article,340,Public Library of Science (PLoS)
10.1371/journal.pone.0240941,2020,journal-article,340,Public Library of Science (PLoS)
10.1371/journal.pone.0190792,2018,journal-article,340,Public Library of Science (PLoS)
10.1371/journal.pone.0013238,2010,journal-article,340,Public Library of Science (PLoS)
10.1371/journal.pone.0119684,2015,journal-article,340,Public Library of Science (PLoS)
10.1371/journal.pone.0013377,2010,journal-article,340,Public Library of Science (PLoS)
10.1371/journal.pone.0234914,2020,journal-article,340,Public Library of Science (PLoS)
10.1371/journal.pone.0107421,2014,journal-article,340,Public Library of Science (PLoS)
10.1371/journal.pone.0123913,2015,journal-article,340,Public Library of Science (PLoS)
10.1371/journal.pntd.0002439,2013,journal-article,340,Public Library of Science (PLoS)
10.1371/journal.pone.0104242,2014,journal-article,340,Public Library of Science (PLoS)
10.1371/journal.pone.0252023,2021,journal-article,340,Public Library of Science (PLoS)
10.1371/journal.pone.0052947,2012,journal-article,340,Public Library of Science (PLoS)
10.1371/journal.pone.0247377,2021,journal-article,340,Public Library of Science (PLoS)
10.1371/journal.pone.0199383,2018,journal-article,340,Public Library of Science (PLoS)
10.1371/journal.pone.0205484,2018,journal-article,340,Public Library of Science (PLoS)
10.1371/journal.pone.0050474,2013,journal-article,340,Public Library of Science (PLoS)
10.1371/journal.pone.0106130,2014,journal-article,340,Public Library of Science (PLoS)
10.1371/journal.pone.0205353,2018,journal-article,340,Public Library of Science (PLoS)
10.1371/journal.pone.0255823,2021,journal-article,340,Public Library of Science (PLoS)
10.1371/journal.pone.0096512,2014,journal-article,340,Public Library of Science (PLoS)
10.1371/journal.pone.0188178,2017,journal-article,340,Public Library of Science (PLoS)
10.1371/journal.pone.0038372,2012,journal-article,340,Public Library of Science (PLoS)
10.1371/journal.pone.0135741,2015,journal-article,340,Public Library of Science (PLoS)
10.1371/journal.pone.0147775,2016,journal-article,340,Public Library of Science (PLoS)
10.1371/journal.pgen.1003796,2013,journal-article,340,Public Library of Science (PLoS)
10.1371/journal.pone.0197042,2018,journal-article,340,Public Library of Science (PLoS)
10.1371/journal.pone.0206373,2018,journal-article,340,Public Library of Science (PLoS)
10.1371/journal.pone.0201063,2018,journal-article,340,Public Library of Science (PLoS)
10.1371/journal.pone.0233190,2020,journal-article,340,Public Library of Science (PLoS)
10.1371/journal.pone.0141776,2015,journal-article,340,Public Library of Science (PLoS)
10.1371/journal.pmed.1002469,2017,journal-article,340,Public Library of Science (PLoS)
10.1371/journal.pone.0172354,2017,journal-article,340,Public Library of Science (PLoS)
10.1371/journal.pone.0228919,2020,journal-article,340,Public Library of Science (PLoS)
10.1371/journal.pone.0084814,2013,journal-article,340,Public Library of Science (PLoS)
10.1371/journal.pntd.0003373,2014,journal-article,340,Public Library of Science (PLoS)
10.1371/journal.pone.0106856,2014,journal-article,340,Public Library of Science (PLoS)
10.1371/journal.pone.0257078,2021,journal-article,340,Public Library of Science (PLoS)
10.1371/journal.pone.0259176,2021,journal-article,340,Public Library of Science (PLoS)
10.1371/journal.pone.0119573,2015,journal-article,340,Public Library of Science (PLoS)
10.1371/journal.pone.0196860,2018,journal-article,340,Public Library of Science (PLoS)
10.1371/journal.pone.0108642,2014,journal-article,340,Public Library of Science (PLoS)
10.1371/journal.pgen.1005526,2015,journal-article,340,Public Library of Science (PLoS)
10.1371/journal.pone.0009441,2010,journal-article,340,Public Library of Science (PLoS)
10.1371/journal.pone.0246858,2021,journal-article,340,Public Library of Science (PLoS)
10.1371/journal.pone.0204659,2018,journal-article,340,Public Library of Science (PLoS)
10.1371/journal.pone.0162269,2016,journal-article,340,Public Library of Science (PLoS)
10.1371/journal.pone.0183358,2017,journal-article,340,Public Library of Science (PLoS)
10.1371/journal.pone.0220289,2019,journal-article,340,Public Library of Science (PLoS)
10.1371/journal.pone.0042979,2012,journal-article,340,Public Library of Science (PLoS)
10.1371/journal.pone.0043437,2012,journal-article,340,Public Library of Science (PLoS)
10.1371/journal.pmed.1000402,2011,journal-article,340,Public Library of Science (PLoS)
10.1371/journal.pone.0119142,2015,journal-article,340,Public Library of Science (PLoS)
10.1371/journal.ppat.1004672,2015,journal-article,340,Public Library of Science (PLoS)
10.1371/journal.pone.0178269,2017,journal-article,340,Public Library of Science (PLoS)
10.1371/journal.pone.0077958,2013,journal-article,340,Public Library of Science (PLoS)
10.1371/journal.pone.0027213,2011,journal-article,340,Public Library of Science (PLoS)
10.1371/journal.pone.0043483,2012,journal-article,340,Public Library of Science (PLoS)
10.1371/journal.pone.0178375,2017,journal-article,340,Public Library of Science (PLoS)
10.1371/journal.pone.0007762,2009,journal-article,340,Public Library of Science (PLoS)
10.1371/journal.pone.0003779,2008,journal-article,340,Public Library of Science (PLoS)
10.1371/journal.pone.0114804,2014,journal-article,340,Public Library of Science (PLoS)
10.1371/journal.pone.0258647,2021,journal-article,340,Public Library of Science (PLoS)
10.1371/journal.pone.0078536,2013,journal-article,340,Public Library of Science (PLoS)
10.1371/journal.pgen.1002881,2012,journal-article,340,Public Library of Science (PLoS)
10.1371/journal.pone.0002078,2008,journal-article,340,Public Library of Science (PLoS)
10.1371/journal.pone.0113721,2014,journal-article,340,Public Library of Science (PLoS)
10.1371/annotation/58d3a7cb-d039-40ca-b960-bd60abfe0ae3,2012,journal-article,340,Public Library of Science (PLoS)
10.1371/journal.pntd.0007773,2019,journal-article,340,Public Library of Science (PLoS)
10.1371/journal.pone.0149550,2016,journal-article,340,Public Library of Science (PLoS)
10.1371/journal.ppat.1000061,2008,journal-article,340,Public Library of Science (PLoS)
10.1371/journal.pone.0142071,2015,journal-article,340,Public Library of Science (PLoS)
10.1371/journal.pone.0150855,2016,journal-article,340,Public Library of Science (PLoS)
10.1371/journal.pone.0242356,2020,journal-article,340,Public Library of Science (PLoS)
10.1371/journal.pone.0247706,2021,journal-article,340,Public Library of Science (PLoS)
10.1371/journal.pone.0075521,2013,journal-article,340,Public Library of Science (PLoS)
10.1371/journal.pbio.1002250,2015,journal-article,340,Public Library of Science (PLoS)
10.1371/journal.pone.0225898,2019,journal-article,340,Public Library of Science (PLoS)
10.1371/journal.pone.0110429,2014,journal-article,340,Public Library of Science (PLoS)
10.1371/journal.pcbi.1005072,2016,journal-article,340,Public Library of Science (PLoS)
10.1371/journal.pone.0093547,2014,journal-article,340,Public Library of Science (PLoS)
10.1371/journal.pcbi.1000776,2010,journal-article,340,Public Library of Science (PLoS)
10.1371/journal.pmed.1003750,2021,journal-article,340,Public Library of Science (PLoS)
10.1371/journal.pone.0051521,2012,journal-article,340,Public Library of Science (PLoS)
10.1371/journal.pone.0097540,2014,journal-article,340,Public Library of Science (PLoS)
10.1371/journal.pone.0105631,2014,journal-article,340,Public Library of Science (PLoS)
10.1371/journal.pone.0249304,2021,journal-article,340,Public Library of Science (PLoS)
10.1371/journal.pone.0245553,2021,journal-article,340,Public Library of Science (PLoS)
10.1371/journal.pone.0175435,2017,journal-article,340,Public Library of Science (PLoS)
10.1371/journal.pone.0255235,2021,journal-article,340,Public Library of Science (PLoS)
10.1371/journal.pone.0100736,2014,journal-article,340,Public Library of Science (PLoS)
10.1371/journal.pone.0068516,2013,journal-article,340,Public Library of Science (PLoS)
10.1371/journal.pone.0159890,2016,journal-article,340,Public Library of Science (PLoS)
10.1371/journal.pone.0069674,2013,journal-article,340,Public Library of Science (PLoS)
10.1371/journal.pone.0193923,2018,journal-article,340,Public Library of Science (PLoS)
10.1371/journal.pone.0234234,2020,journal-article,340,Public Library of Science (PLoS)
10.1371/journal.pone.0102144,2014,journal-article,340,Public Library of Science (PLoS)
10.1371/journal.pone.0130278,2015,journal-article,340,Public Library of Science (PLoS)
10.1371/journal.pone.0023660,2011,journal-article,340,Public Library of Science (PLoS)
10.1371/journal.pone.0110592,2014,journal-article,340,Public Library of Science (PLoS)
10.1371/journal.pcbi.1007919,2020,journal-article,340,Public Library of Science (PLoS)
10.1371/journal.pcbi.1008758,2021,journal-article,340,Public Library of Science (PLoS)
10.1371/journal.pone.0249070,2021,journal-article,340,Public Library of Science (PLoS)
10.1371/journal.pone.0107193,2014,journal-article,340,Public Library of Science (PLoS)
10.1371/journal.pone.0229676,2020,journal-article,340,Public Library of Science (PLoS)
10.1371/journal.pone.0173344,2017,journal-article,340,Public Library of Science (PLoS)
10.1371/journal.pone.0151762,2016,journal-article,340,Public Library of Science (PLoS)
10.1371/journal.pone.0154822,2016,journal-article,340,Public Library of Science (PLoS)
10.1371/journal.pone.0057457,2013,journal-article,340,Public Library of Science (PLoS)
10.1371/journal.pone.0008368,2009,journal-article,340,Public Library of Science (PLoS)
10.1371/journal.pcbi.1004409,2016,journal-article,340,Public Library of Science (PLoS)
10.1371/journal.pone.0152575,2016,journal-article,340,Public Library of Science (PLoS)
10.1371/journal.pone.0076794,2013,journal-article,340,Public Library of Science (PLoS)
10.1371/journal.pone.0023739,2011,journal-article,340,Public Library of Science (PLoS)
10.1371/journal.pone.0196012,2018,journal-article,340,Public Library of Science (PLoS)
10.1371/journal.pone.0249770,2021,journal-article,340,Public Library of Science (PLoS)
10.1371/journal.pone.0118033,2015,journal-article,340,Public Library of Science (PLoS)
10.1371/journal.pone.0118567,2015,journal-article,340,Public Library of Science (PLoS)
10.1371/journal.pone.0174518,2017,journal-article,340,Public Library of Science (PLoS)
10.1371/journal.pone.0036415,2012,journal-article,340,Public Library of Science (PLoS)
10.1371/journal.pone.0189848,2017,journal-article,340,Public Library of Science (PLoS)
10.1371/journal.pone.0112697,2014,journal-article,340,Public Library of Science (PLoS)
10.1371/journal.pone.0197963,2019,journal-article,340,Public Library of Science (PLoS)
10.1371/journal.pone.0236418,2020,journal-article,340,Public Library of Science (PLoS)
10.1371/journal.pone.0250042,2021,journal-article,340,Public Library of Science (PLoS)
10.1371/journal.pone.0148984,2016,journal-article,340,Public Library of Science (PLoS)
10.1371/journal.pone.0104779,2014,journal-article,340,Public Library of Science (PLoS)
10.1371/journal.pone.0034594,2012,journal-article,340,Public Library of Science (PLoS)
10.1371/journal.pone.0149419,2016,journal-article,340,Public Library of Science (PLoS)
10.1371/journal.pone.0102439,2014,journal-article,340,Public Library of Science (PLoS)
10.1371/journal.pone.0035624,2012,journal-article,340,Public Library of Science (PLoS)
10.1371/journal.pone.0136477,2015,journal-article,340,Public Library of Science (PLoS)
10.1371/journal.pone.0219824,2019,journal-article,340,Public Library of Science (PLoS)
10.1371/journal.pone.0105444,2014,journal-article,340,Public Library of Science (PLoS)
10.1371/journal.pone.0123154,2015,journal-article,340,Public Library of Science (PLoS)
10.1371/journal.pone.0200464,2018,journal-article,340,Public Library of Science (PLoS)
10.1371/journal.pmed.1002304,2017,journal-article,340,Public Library of Science (PLoS)
10.1371/journal.pone.0084046,2013,journal-article,340,Public Library of Science (PLoS)
10.1371/journal.pone.0026784,2011,journal-article,340,Public Library of Science (PLoS)
10.1371/journal.pone.0052608,2012,journal-article,340,Public Library of Science (PLoS)
10.1371/journal.pone.0025396,2011,journal-article,340,Public Library of Science (PLoS)
10.1371/journal.pone.0158391,2016,journal-article,340,Public Library of Science (PLoS)
10.1371/journal.pone.0000711,2007,journal-article,340,Public Library of Science (PLoS)
10.1371/journal.pntd.0007946,2019,journal-article,340,Public Library of Science (PLoS)
10.1371/journal.pone.0108591,2014,journal-article,340,Public Library of Science (PLoS)
10.1371/journal.pbio.3000039,2018,journal-article,340,Public Library of Science (PLoS)
10.1371/journal.pone.0130000,2015,journal-article,340,Public Library of Science (PLoS)
10.1371/journal.pone.0158333,2016,journal-article,340,Public Library of Science (PLoS)
10.1371/journal.pone.0166316,2016,journal-article,340,Public Library of Science (PLoS)
10.1371/journal.pone.0248183,2021,journal-article,340,Public Library of Science (PLoS)
10.1371/journal.pone.0006209,2009,journal-article,340,Public Library of Science (PLoS)
10.1371/journal.pone.0208442,2018,journal-article,340,Public Library of Science (PLoS)
10.1371/journal.pone.0097436,2014,journal-article,340,Public Library of Science (PLoS)
10.1371/journal.pone.0164516,2016,journal-article,340,Public Library of Science (PLoS)
10.1371/journal.pone.0170438,2017,journal-article,340,Public Library of Science (PLoS)
10.1371/journal.pone.0186709,2017,journal-article,340,Public Library of Science (PLoS)
10.1371/journal.pone.0076092,2013,journal-article,340,Public Library of Science (PLoS)
10.1371/journal.pone.0042517,2012,journal-article,340,Public Library of Science (PLoS)
10.1371/journal.pone.0233713,2020,journal-article,340,Public Library of Science (PLoS)
10.1371/journal.pbio.3000430,2019,journal-article,340,Public Library of Science (PLoS)
10.1371/journal.pone.0169293,2017,journal-article,340,Public Library of Science (PLoS)
10.1371/journal.pbio.1000162,2009,journal-article,340,Public Library of Science (PLoS)
10.1371/journal.pone.0245895,2021,journal-article,340,Public Library of Science (PLoS)
10.1371/journal.pone.0208731,2018,journal-article,340,Public Library of Science (PLoS)
10.1371/journal.ppat.1003627,2013,journal-article,340,Public Library of Science (PLoS)
10.1371/journal.pone.0112427,2014,journal-article,340,Public Library of Science (PLoS)
10.1371/journal.pone.0104819,2014,journal-article,340,Public Library of Science (PLoS)
10.1371/journal.ppat.1000209,2008,journal-article,340,Public Library of Science (PLoS)
10.1371/journal.pcbi.1002731,2012,journal-article,340,Public Library of Science (PLoS)
10.1371/journal.pntd.0002483,2013,journal-article,340,Public Library of Science (PLoS)
10.1371/journal.pone.0021572,2011,journal-article,340,Public Library of Science (PLoS)
10.1371/journal.pone.0106996,2014,journal-article,340,Public Library of Science (PLoS)
10.1371/annotation/a733d1cb-96c1-4125-8060-f3d9143e964b,2014,journal-article,340,Public Library of Science (PLoS)
10.1371/journal.pone.0219658,2019,journal-article,340,Public Library of Science (PLoS)
10.1371/journal.pone.0000159,2007,journal-article,340,Public Library of Science (PLoS)
10.1371/journal.pbio.0060066,2008,journal-article,340,Public Library of Science (PLoS)
10.1371/journal.pone.0204856,2018,journal-article,340,Public Library of Science (PLoS)
10.1371/journal.pone.0052502,2012,journal-article,340,Public Library of Science (PLoS)
10.1371/journal.pone.0063070,2013,journal-article,340,Public Library of Science (PLoS)
10.1371/journal.pone.0192279,2018,journal-article,340,Public Library of Science (PLoS)
10.1371/journal.pone.0221663,2019,journal-article,340,Public Library of Science (PLoS)
10.1371/journal.pone.0114920,2014,journal-article,340,Public Library of Science (PLoS)
10.1371/journal.pmed.1001886,2015,journal-article,340,Public Library of Science (PLoS)
10.1371/journal.pone.0086788,2014,journal-article,340,Public Library of Science (PLoS)
10.1371/journal.ppat.1004293,2014,journal-article,340,Public Library of Science (PLoS)
10.1371/journal.pone.0094330,2014,journal-article,340,Public Library of Science (PLoS)
10.1371/journal.pone.0199412,2018,journal-article,340,Public Library of Science (PLoS)
10.1371/journal.pone.0027586,2011,journal-article,340,Public Library of Science (PLoS)
10.1371/journal.pone.0215734,2019,journal-article,340,Public Library of Science (PLoS)
10.1371/journal.pone.0051527,2012,journal-article,340,Public Library of Science (PLoS)
10.1371/journal.pone.0010964,2010,journal-article,340,Public Library of Science (PLoS)
10.1371/journal.pone.0034306,2012,journal-article,340,Public Library of Science (PLoS)
10.1371/journal.pone.0181896,2017,journal-article,340,Public Library of Science (PLoS)
10.1371/journal.pone.0061802,2013,journal-article,340,Public Library of Science (PLoS)
10.1371/journal.pone.0096864,2014,journal-article,340,Public Library of Science (PLoS)
10.1371/journal.pone.0022811,2011,journal-article,340,Public Library of Science (PLoS)
10.1371/journal.pgen.1000329,2009,journal-article,340,Public Library of Science (PLoS)
10.1371/journal.pcbi.0020134.eor,2005,journal-article,340,Public Library of Science (PLoS)
10.1371/journal.pone.0031646,2012,journal-article,340,Public Library of Science (PLoS)
10.1371/journal.pone.0074194,2013,journal-article,340,Public Library of Science (PLoS)
10.1371/journal.pone.0135392,2015,journal-article,340,Public Library of Science (PLoS)
10.1371/journal.pone.0146936,2016,journal-article,340,Public Library of Science (PLoS)
10.1371/journal.pone.0207191,2019,journal-article,340,Public Library of Science (PLoS)
10.1371/journal.ppat.1009631,2021,journal-article,340,Public Library of Science (PLoS)
10.1371/journal.pone.0004263,2009,journal-article,340,Public Library of Science (PLoS)
10.1371/journal.pone.0084078,2013,journal-article,340,Public Library of Science (PLoS)
10.1371/journal.pone.0049521,2012,journal-article,340,Public Library of Science (PLoS)
10.1371/journal.pone.0029378,2011,journal-article,340,Public Library of Science (PLoS)
10.1371/journal.pone.0069597,2013,journal-article,340,Public Library of Science (PLoS)
10.1371/journal.pone.0072744,2013,journal-article,340,Public Library of Science (PLoS)
10.1371/journal.pone.0143726,2015,journal-article,340,Public Library of Science (PLoS)
10.1371/journal.pmed.1002689,2018,journal-article,340,Public Library of Science (PLoS)
10.1371/journal.pone.0216742,2019,journal-article,340,Public Library of Science (PLoS)
10.1371/journal.pone.0128365,2015,journal-article,340,Public Library of Science (PLoS)
10.1371/journal.pone.0105801,2014,journal-article,340,Public Library of Science (PLoS)
10.1371/journal.pcbi.1002460,2012,journal-article,340,Public Library of Science (PLoS)
10.1371/journal.pone.0155606,2016,journal-article,340,Public Library of Science (PLoS)
10.1371/journal.pone.0121638,2015,journal-article,340,Public Library of Science (PLoS)
10.1371/journal.pone.0023994,2011,journal-article,340,Public Library of Science (PLoS)
10.1371/journal.pone.0236378,2020,journal-article,340,Public Library of Science (PLoS)
10.1371/journal.pone.0183781,2017,journal-article,340,Public Library of Science (PLoS)
10.1371/journal.pone.0019729,2011,journal-article,340,Public Library of Science (PLoS)
10.1371/journal.pone.0084214,2014,journal-article,340,Public Library of Science (PLoS)
10.1371/journal.pone.0008947,2010,journal-article,340,Public Library of Science (PLoS)
10.1371/journal.pone.0045224,2012,journal-article,340,Public Library of Science (PLoS)
10.1371/journal.pone.0200841,2018,journal-article,340,Public Library of Science (PLoS)
10.1371/journal.pone.0130510,2015,journal-article,340,Public Library of Science (PLoS)
10.1371/journal.pone.0110358,2014,journal-article,340,Public Library of Science (PLoS)
10.1371/journal.pone.0196933,2018,journal-article,340,Public Library of Science (PLoS)
10.1371/journal.pone.0207481,2018,journal-article,340,Public Library of Science (PLoS)
10.1371/journal.pone.0233203,2020,journal-article,340,Public Library of Science (PLoS)
10.1371/journal.pgen.1000491,2009,journal-article,340,Public Library of Science (PLoS)
10.1371/journal.pone.0162446,2016,journal-article,340,Public Library of Science (PLoS)
10.1371/journal.pone.0057278,2013,journal-article,340,Public Library of Science (PLoS)
10.1371/journal.pone.0059668,2013,journal-article,340,Public Library of Science (PLoS)
10.1371/journal.pone.0225124,2019,journal-article,340,Public Library of Science (PLoS)
10.1371/journal.pone.0016540,2011,journal-article,340,Public Library of Science (PLoS)
10.1371/journal.pone.0223096,2019,journal-article,340,Public Library of Science (PLoS)
10.1371/journal.pone.0104121,2014,journal-article,340,Public Library of Science (PLoS)
10.1371/journal.pone.0076523,2013,journal-article,340,Public Library of Science (PLoS)
10.1371/journal.ppat.1007919,2019,journal-article,340,Public Library of Science (PLoS)
10.1371/journal.pone.0223549,2019,journal-article,340,Public Library of Science (PLoS)
10.1371/journal.pone.0169053,2016,journal-article,340,Public Library of Science (PLoS)
10.1371/journal.pone.0226142,2020,journal-article,340,Public Library of Science (PLoS)
10.1371/journal.pone.0170290,2017,journal-article,340,Public Library of Science (PLoS)
10.1371/journal.pntd.0008791,2020,journal-article,340,Public Library of Science (PLoS)
10.1371/journal.pone.0183136,2017,journal-article,340,Public Library of Science (PLoS)
10.1371/journal.pone.0011397,2010,journal-article,340,Public Library of Science (PLoS)
10.1371/journal.pone.0241729,2021,journal-article,340,Public Library of Science (PLoS)
10.1371/journal.pone.0245945,2021,journal-article,340,Public Library of Science (PLoS)
10.1371/journal.pone.0133802,2015,journal-article,340,Public Library of Science (PLoS)
10.1371/journal.pone.0166605,2016,journal-article,340,Public Library of Science (PLoS)
10.1371/journal.pone.0037042,2012,journal-article,340,Public Library of Science (PLoS)
10.1371/journal.pone.0113048,2014,journal-article,340,Public Library of Science (PLoS)
10.1371/journal.pone.0154722,2016,journal-article,340,Public Library of Science (PLoS)
10.1371/journal.pbio.2000689,2017,journal-article,340,Public Library of Science (PLoS)
10.1371/journal.pgen.1003960,2013,journal-article,340,Public Library of Science (PLoS)
10.1371/journal.pone.0136797,2015,journal-article,340,Public Library of Science (PLoS)
10.1371/journal.pone.0107890,2014,journal-article,340,Public Library of Science (PLoS)
10.1371/journal.pone.0074138,2013,journal-article,340,Public Library of Science (PLoS)
10.1371/journal.pone.0111085,2014,journal-article,340,Public Library of Science (PLoS)
10.1371/journal.pone.0184008,2017,journal-article,340,Public Library of Science (PLoS)
10.1371/journal.pone.0101080,2014,journal-article,340,Public Library of Science (PLoS)
10.1371/journal.pone.0174374,2017,journal-article,340,Public Library of Science (PLoS)
10.1371/journal.pone.0069339,2013,journal-article,340,Public Library of Science (PLoS)
10.1371/journal.pone.0104073,2014,journal-article,340,Public Library of Science (PLoS)
10.1371/journal.pone.0224340,2019,journal-article,340,Public Library of Science (PLoS)
10.1371/journal.pone.0219622,2019,journal-article,340,Public Library of Science (PLoS)
10.1371/image.ppat.v06.i05,2010,journal-article,340,Public Library of Science (PLoS)
10.1371/journal.pone.0214021,2019,journal-article,340,Public Library of Science (PLoS)
10.1371/journal.pone.0091873,2014,journal-article,340,Public Library of Science (PLoS)
10.1371/journal.pone.0129128,2015,journal-article,340,Public Library of Science (PLoS)
10.1371/journal.pone.0251840,2021,journal-article,340,Public Library of Science (PLoS)
10.1371/journal.pone.0250220,2021,journal-article,340,Public Library of Science (PLoS)
10.1371/journal.pone.0197616,2018,journal-article,340,Public Library of Science (PLoS)
10.1371/journal.pone.0089083,2014,journal-article,340,Public Library of Science (PLoS)
10.1371/journal.pone.0139834,2015,journal-article,340,Public Library of Science (PLoS)
10.1371/journal.pone.0150294,2016,journal-article,340,Public Library of Science (PLoS)
10.1371/journal.pone.0168982,2017,journal-article,340,Public Library of Science (PLoS)
10.1371/journal.pone.0106239,2014,journal-article,340,Public Library of Science (PLoS)
10.1371/journal.pone.0112497,2014,journal-article,340,Public Library of Science (PLoS)
10.1371/journal.pone.0226837,2019,journal-article,340,Public Library of Science (PLoS)
10.1371/journal.pone.0038818,2012,journal-article,340,Public Library of Science (PLoS)
10.1371/journal.pone.0257230,2021,journal-article,340,Public Library of Science (PLoS)
10.1371/journal.ppat.1002042,2011,journal-article,340,Public Library of Science (PLoS)
10.1371/journal.pone.0123286,2015,journal-article,340,Public Library of Science (PLoS)
10.1371/journal.pone.0255356,2021,journal-article,340,Public Library of Science (PLoS)
10.1371/journal.pone.0133001,2015,journal-article,340,Public Library of Science (PLoS)
10.1371/journal.pone.0176928,2017,journal-article,340,Public Library of Science (PLoS)
10.1371/journal.pone.0020002,2011,journal-article,340,Public Library of Science (PLoS)
10.1371/journal.pone.0031225,2012,journal-article,340,Public Library of Science (PLoS)
10.1371/journal.pone.0191816,2018,journal-article,340,Public Library of Science (PLoS)
10.1371/journal.pone.0148187,2016,journal-article,340,Public Library of Science (PLoS)
10.1371/journal.pmed.1002229,2017,journal-article,340,Public Library of Science (PLoS)
10.1371/journal.pone.0204540,2019,journal-article,340,Public Library of Science (PLoS)
10.1371/journal.pone.0007466,2009,journal-article,340,Public Library of Science (PLoS)
10.1371/journal.pcbi.1009474,2021,journal-article,340,Public Library of Science (PLoS)
10.1371/journal.pbio.3000004,2018,journal-article,340,Public Library of Science (PLoS)
10.1371/journal.pone.0183318,2017,journal-article,340,Public Library of Science (PLoS)
10.1371/journal.pone.0104869,2014,journal-article,340,Public Library of Science (PLoS)
10.1371/journal.pone.0182681,2017,journal-article,340,Public Library of Science (PLoS)
10.1371/journal.pone.0181455,2017,journal-article,340,Public Library of Science (PLoS)
10.1371/journal.pone.0035259,2012,journal-article,340,Public Library of Science (PLoS)
10.1371/journal.pone.0127128,2015,journal-article,340,Public Library of Science (PLoS)
10.1371/journal.pone.0141609,2015,journal-article,340,Public Library of Science (PLoS)
10.1371/journal.pone.0059982,2013,journal-article,340,Public Library of Science (PLoS)
10.1371/journal.pone.0024185,2011,journal-article,340,Public Library of Science (PLoS)
10.1371/journal.pone.0135579,2015,journal-article,340,Public Library of Science (PLoS)
10.1371/journal.pone.0128424,2015,journal-article,340,Public Library of Science (PLoS)
10.1371/journal.pone.0183792,2017,journal-article,340,Public Library of Science (PLoS)
10.1371/journal.pone.0141137,2015,journal-article,340,Public Library of Science (PLoS)
10.1371/journal.pone.0254101,2021,journal-article,340,Public Library of Science (PLoS)
10.1371/journal.pone.0189558,2017,journal-article,340,Public Library of Science (PLoS)
10.1371/journal.pone.0241671,2020,journal-article,340,Public Library of Science (PLoS)
10.1371/journal.pone.0243801,2021,journal-article,340,Public Library of Science (PLoS)
10.1371/journal.pone.0184972,2017,journal-article,340,Public Library of Science (PLoS)
10.1371/journal.pone.0172716,2017,journal-article,340,Public Library of Science (PLoS)
10.1371/journal.pone.0203453,2018,journal-article,340,Public Library of Science (PLoS)
10.1371/journal.pone.0151974,2016,journal-article,340,Public Library of Science (PLoS)
10.1371/journal.ppat.1004942,2015,journal-article,340,Public Library of Science (PLoS)
10.1371/journal.pone.0094562,2014,journal-article,340,Public Library of Science (PLoS)
10.1371/journal.pone.0145567,2015,journal-article,340,Public Library of Science (PLoS)
10.1371/journal.pone.0130124,2015,journal-article,340,Public Library of Science (PLoS)
10.1371/journal.pone.0144932,2015,journal-article,340,Public Library of Science (PLoS)
10.1371/journal.pone.0131546,2015,journal-article,340,Public Library of Science (PLoS)
10.1371/journal.pone.0031724,2012,journal-article,340,Public Library of Science (PLoS)
10.1371/journal.pone.0183021,2017,journal-article,340,Public Library of Science (PLoS)
10.1371/journal.pone.0201130,2018,journal-article,340,Public Library of Science (PLoS)
10.1371/journal.pone.0223214,2019,journal-article,340,Public Library of Science (PLoS)
10.1371/journal.pbio.0030366,2005,journal-article,340,Public Library of Science (PLoS)
10.1371/journal.pone.0193539,2018,journal-article,340,Public Library of Science (PLoS)
10.1371/journal.pone.0071072,2013,journal-article,340,Public Library of Science (PLoS)
10.1371/journal.pone.0162004,2016,journal-article,340,Public Library of Science (PLoS)
10.1371/journal.ppat.1002924,2012,journal-article,340,Public Library of Science (PLoS)
10.1371/journal.pone.0163978,2016,journal-article,340,Public Library of Science (PLoS)
10.1371/journal.pone.0230488,2020,journal-article,340,Public Library of Science (PLoS)
10.1371/journal.pone.0001192,2007,journal-article,340,Public Library of Science (PLoS)
10.1371/journal.pone.0166335,2016,journal-article,340,Public Library of Science (PLoS)
10.1371/journal.pone.0175171,2017,journal-article,340,Public Library of Science (PLoS)
10.1371/journal.pone.0095037,2014,journal-article,340,Public Library of Science (PLoS)
10.1371/journal.pone.0020277,2011,journal-article,340,Public Library of Science (PLoS)
10.1371/journal.pone.0137953,2015,journal-article,340,Public Library of Science (PLoS)
10.1371/journal.pone.0114913,2014,journal-article,340,Public Library of Science (PLoS)
10.1371/journal.pone.0024164,2011,journal-article,340,Public Library of Science (PLoS)
10.1371/journal.pone.0051862,2012,journal-article,340,Public Library of Science (PLoS)
10.1371/journal.pone.0036927,2012,journal-article,340,Public Library of Science (PLoS)
10.1371/journal.pone.0198471,2018,journal-article,340,Public Library of Science (PLoS)
10.1371/annotation/23e9f360-dbf5-434e-9a5a-a78172c6cba8,2013,journal-article,340,Public Library of Science (PLoS)
10.1371/journal.ppat.1001152,2010,journal-article,340,Public Library of Science (PLoS)
10.1371/journal.pone.0130863,2015,journal-article,340,Public Library of Science (PLoS)
10.1371/journal.pone.0123412,2015,journal-article,340,Public Library of Science (PLoS)
10.1371/journal.pone.0211539,2019,journal-article,340,Public Library of Science (PLoS)
10.1371/journal.pcbi.1000369,2009,journal-article,340,Public Library of Science (PLoS)
10.1371/journal.pone.0176428,2017,journal-article,340,Public Library of Science (PLoS)
10.1371/journal.pone.0122432,2015,journal-article,340,Public Library of Science (PLoS)
10.1371/journal.pone.0137397,2015,journal-article,340,Public Library of Science (PLoS)
10.1371/journal.pbio.2001750,2017,journal-article,340,Public Library of Science (PLoS)
10.1371/journal.pone.0058550,2013,journal-article,340,Public Library of Science (PLoS)
10.1371/journal.pone.0176197,2017,journal-article,340,Public Library of Science (PLoS)
10.1371/journal.ppat.1003503,2013,journal-article,340,Public Library of Science (PLoS)
10.1371/journal.pone.0215405,2019,journal-article,340,Public Library of Science (PLoS)
10.1371/journal.pmed.1001398,2013,journal-article,340,Public Library of Science (PLoS)
10.1371/journal.pone.0250903,2021,journal-article,340,Public Library of Science (PLoS)
10.1371/journal.pone.0155028,2016,journal-article,340,Public Library of Science (PLoS)
10.1371/journal.pone.0084185,2013,journal-article,340,Public Library of Science (PLoS)
10.1371/journal.pone.0109818,2014,journal-article,340,Public Library of Science (PLoS)
10.1371/journal.pone.0113951,2014,journal-article,340,Public Library of Science (PLoS)
10.1371/journal.pone.0122917,2015,journal-article,340,Public Library of Science (PLoS)
10.1371/journal.pone.0236928,2020,journal-article,340,Public Library of Science (PLoS)
10.1371/journal.pone.0139047,2015,journal-article,340,Public Library of Science (PLoS)
10.1371/journal.pone.0097707,2014,journal-article,340,Public Library of Science (PLoS)
10.1371/journal.pone.0027234,2011,journal-article,340,Public Library of Science (PLoS)
10.1371/journal.ppat.1009193,2021,journal-article,340,Public Library of Science (PLoS)
10.1371/journal.pbio.3001151,2021,journal-article,340,Public Library of Science (PLoS)
10.1371/journal.pone.0194337,2018,journal-article,340,Public Library of Science (PLoS)
10.1371/journal.pone.0112736,2014,journal-article,340,Public Library of Science (PLoS)
10.1371/journal.pone.0067354,2013,journal-article,340,Public Library of Science (PLoS)
10.1371/journal.pone.0252063,2021,journal-article,340,Public Library of Science (PLoS)
10.1371/journal.pone.0056554,2013,journal-article,340,Public Library of Science (PLoS)
10.1371/journal.pone.0234869,2020,journal-article,340,Public Library of Science (PLoS)
10.1371/journal.pgen.1001393,2011,journal-article,340,Public Library of Science (PLoS)
10.1371/journal.pone.0198728,2018,journal-article,340,Public Library of Science (PLoS)
10.1371/journal.pone.0224216,2019,journal-article,340,Public Library of Science (PLoS)
10.1371/journal.pntd.0001994,2013,journal-article,340,Public Library of Science (PLoS)
10.1371/journal.pone.0101089,2014,journal-article,340,Public Library of Science (PLoS)
10.1371/journal.ppat.1002293,2011,journal-article,340,Public Library of Science (PLoS)
10.1371/journal.pone.0119070,2015,journal-article,340,Public Library of Science (PLoS)
10.1371/journal.pone.0158429,2016,journal-article,340,Public Library of Science (PLoS)
10.1371/journal.pone.0011690,2010,journal-article,340,Public Library of Science (PLoS)
10.1371/journal.pone.0061854,2013,journal-article,340,Public Library of Science (PLoS)
10.1371/journal.pone.0195339,2018,journal-article,340,Public Library of Science (PLoS)
10.1371/journal.pone.0148436,2016,journal-article,340,Public Library of Science (PLoS)
10.1371/journal.pone.0049334,2012,journal-article,340,Public Library of Science (PLoS)
10.1371/journal.pone.0180817,2017,journal-article,340,Public Library of Science (PLoS)
10.1371/journal.pone.0083111,2013,journal-article,340,Public Library of Science (PLoS)
10.1371/journal.pone.0048894,2012,journal-article,340,Public Library of Science (PLoS)
10.1371/journal.pntd.0000734,2010,journal-article,340,Public Library of Science (PLoS)
10.1371/journal.pone.0098062,2014,journal-article,340,Public Library of Science (PLoS)
10.1371/journal.ppat.1002209,2011,journal-article,340,Public Library of Science (PLoS)
10.1371/journal.ppat.1009392,2021,journal-article,340,Public Library of Science (PLoS)
10.1371/journal.pone.0038449,2012,journal-article,340,Public Library of Science (PLoS)
10.1371/journal.pone.0172320,2017,journal-article,340,Public Library of Science (PLoS)
10.1371/journal.pone.0212201,2019,journal-article,340,Public Library of Science (PLoS)
10.1371/journal.pmed.1001470,2013,journal-article,340,Public Library of Science (PLoS)
10.1371/journal.pone.0098248,2014,journal-article,340,Public Library of Science (PLoS)
10.1371/journal.pone.0220827,2019,journal-article,340,Public Library of Science (PLoS)
10.1371/journal.pone.0155792,2016,journal-article,340,Public Library of Science (PLoS)
10.1371/journal.pone.0198749,2018,journal-article,340,Public Library of Science (PLoS)
10.1371/journal.pone.0019564,2011,journal-article,340,Public Library of Science (PLoS)
10.1371/journal.pone.0188414,2017,journal-article,340,Public Library of Science (PLoS)
10.1371/journal.ppat.1003322,2013,journal-article,340,Public Library of Science (PLoS)
10.1371/journal.pone.0190153,2018,journal-article,340,Public Library of Science (PLoS)
10.1371/journal.pone.0152255,2016,journal-article,340,Public Library of Science (PLoS)
10.1371/journal.pone.0158593,2016,journal-article,340,Public Library of Science (PLoS)
10.1371/journal.pone.0046346,2012,journal-article,340,Public Library of Science (PLoS)
10.1371/journal.pgen.1007980,2019,journal-article,340,Public Library of Science (PLoS)
10.1371/journal.pone.0203708,2018,journal-article,340,Public Library of Science (PLoS)
10.1371/journal.pone.0120562,2015,journal-article,340,Public Library of Science (PLoS)
10.1371/journal.pone.0033158,2012,journal-article,340,Public Library of Science (PLoS)
10.1371/journal.pone.0168336,2016,journal-article,340,Public Library of Science (PLoS)
10.1371/journal.pone.0192768,2018,journal-article,340,Public Library of Science (PLoS)
10.1371/journal.pcbi.0010065.eor,2005,journal-article,340,Public Library of Science (PLoS)
10.1371/journal.pone.0133602,2015,journal-article,340,Public Library of Science (PLoS)
10.1371/journal.pone.0055328,2013,journal-article,340,Public Library of Science (PLoS)
10.1371/journal.pone.0255760,2021,journal-article,340,Public Library of Science (PLoS)
10.1371/journal.pone.0200141,2018,journal-article,340,Public Library of Science (PLoS)
10.1371/journal.pone.0006690,2009,journal-article,340,Public Library of Science (PLoS)
10.1371/annotation/8b0f8019-e4ba-4c35-9575-1a1313ae7b41,2013,journal-article,340,Public Library of Science (PLoS)
10.1371/journal.pone.0067530,2013,journal-article,340,Public Library of Science (PLoS)
10.1371/journal.pone.0150893,2016,journal-article,340,Public Library of Science (PLoS)
10.1371/currents.dis.a4f34a96cb91aaffacd36f5ce7476a36,2013,journal-article,340,Public Library of Science (PLoS)
10.1371/journal.pone.0159002,2016,journal-article,340,Public Library of Science (PLoS)
10.1371/journal.pone.0083857,2013,journal-article,340,Public Library of Science (PLoS)
10.1371/journal.pntd.0005661,2017,journal-article,340,Public Library of Science (PLoS)
10.1371/journal.pone.0116816,2015,journal-article,340,Public Library of Science (PLoS)
10.1371/journal.pntd.0009285,2021,journal-article,340,Public Library of Science (PLoS)
10.1371/journal.pone.0169957,2017,journal-article,340,Public Library of Science (PLoS)
10.1371/journal.ppat.1007457,2018,journal-article,340,Public Library of Science (PLoS)
10.1371/journal.pmed.0030322,2006,journal-article,340,Public Library of Science (PLoS)
10.1371/journal.ppat.1007606,2019,journal-article,340,Public Library of Science (PLoS)
10.1371/journal.pone.0116795,2015,journal-article,340,Public Library of Science (PLoS)
10.1371/journal.pone.0063645,2013,journal-article,340,Public Library of Science (PLoS)
10.1371/journal.ppat.0030136,2007,journal-article,340,Public Library of Science (PLoS)
10.1371/journal.pone.0134152,2015,journal-article,340,Public Library of Science (PLoS)
10.1371/journal.pone.0219519,2019,journal-article,340,Public Library of Science (PLoS)
10.1371/journal.pone.0119207,2015,journal-article,340,Public Library of Science (PLoS)
10.1371/journal.pntd.0005516,2017,journal-article,340,Public Library of Science (PLoS)
10.1371/journal.pmed.1001169,2012,journal-article,340,Public Library of Science (PLoS)
10.1371/journal.pone.0230377,2020,journal-article,340,Public Library of Science (PLoS)
10.1371/journal.pone.0166588,2016,journal-article,340,Public Library of Science (PLoS)
10.1371/journal.pone.0191919,2018,journal-article,340,Public Library of Science (PLoS)
10.1371/journal.pone.0122422,2015,journal-article,340,Public Library of Science (PLoS)
10.1371/journal.ppat.1000300,2009,journal-article,340,Public Library of Science (PLoS)
10.1371/journal.pone.0068466,2013,journal-article,340,Public Library of Science (PLoS)
10.1371/journal.ppat.1004608,2015,journal-article,340,Public Library of Science (PLoS)
10.1371/journal.pone.0039502,2012,journal-article,340,Public Library of Science (PLoS)
10.1371/journal.pcbi.1004989,2016,journal-article,340,Public Library of Science (PLoS)
10.1371/journal.ppat.1006359,2017,journal-article,340,Public Library of Science (PLoS)
10.1371/journal.pone.0192402,2018,journal-article,340,Public Library of Science (PLoS)
10.1371/journal.pone.0129100,2015,journal-article,340,Public Library of Science (PLoS)
10.1371/journal.pone.0156067,2016,journal-article,340,Public Library of Science (PLoS)
10.1371/journal.pone.0227836,2020,journal-article,340,Public Library of Science (PLoS)
10.1371/journal.pone.0255131,2021,journal-article,340,Public Library of Science (PLoS)
10.1371/journal.pone.0189289,2017,journal-article,340,Public Library of Science (PLoS)
10.1371/journal.pgen.1006692,2017,journal-article,340,Public Library of Science (PLoS)
10.1371/journal.pone.0159263,2016,journal-article,340,Public Library of Science (PLoS)
10.1371/journal.ppat.1002475,2012,journal-article,340,Public Library of Science (PLoS)
10.1371/journal.pone.0001895,2008,journal-article,340,Public Library of Science (PLoS)
10.1371/journal.pone.0257564,2021,journal-article,340,Public Library of Science (PLoS)
10.1371/journal.pone.0075859,2013,journal-article,340,Public Library of Science (PLoS)
10.1371/journal.pone.0199887,2018,journal-article,340,Public Library of Science (PLoS)
10.1371/journal.pone.0222953,2019,journal-article,340,Public Library of Science (PLoS)
10.1371/journal.pone.0098904,2014,journal-article,340,Public Library of Science (PLoS)
10.1371/journal.pone.0163922,2016,journal-article,340,Public Library of Science (PLoS)
10.1371/journal.pone.0186547,2017,journal-article,340,Public Library of Science (PLoS)
10.1371/journal.pone.0103752,2014,journal-article,340,Public Library of Science (PLoS)
10.1371/journal.pone.0101590,2014,journal-article,340,Public Library of Science (PLoS)
10.1371/journal.pone.0147987,2016,journal-article,340,Public Library of Science (PLoS)
10.1371/journal.pbio.1002465,2016,journal-article,340,Public Library of Science (PLoS)
10.1371/journal.pone.0140470,2015,journal-article,340,Public Library of Science (PLoS)
10.1371/journal.pcbi.1009166,2021,journal-article,340,Public Library of Science (PLoS)
10.1371/journal.pntd.0007020,2019,journal-article,340,Public Library of Science (PLoS)
10.1371/journal.pone.0029658,2012,journal-article,340,Public Library of Science (PLoS)
10.1371/journal.pone.0007303,2009,journal-article,340,Public Library of Science (PLoS)
10.1371/journal.pone.0021927,2011,journal-article,340,Public Library of Science (PLoS)
10.1371/journal.pone.0027103,2011,journal-article,340,Public Library of Science (PLoS)
10.1371/journal.pone.0123576,2015,journal-article,340,Public Library of Science (PLoS)
10.1371/journal.pgen.1003645,2013,journal-article,340,Public Library of Science (PLoS)
10.1371/journal.pone.0103093,2014,journal-article,340,Public Library of Science (PLoS)
10.1371/journal.pbio.1001519,2013,journal-article,340,Public Library of Science (PLoS)
10.1371/journal.pone.0083039,2013,journal-article,340,Public Library of Science (PLoS)
10.1371/journal.ppat.1001344,2011,journal-article,340,Public Library of Science (PLoS)
10.1371/journal.pone.0210048,2018,journal-article,340,Public Library of Science (PLoS)
10.1371/journal.pone.0123713,2015,journal-article,340,Public Library of Science (PLoS)
10.1371/journal.pone.0012552,2010,journal-article,340,Public Library of Science (PLoS)
10.1371/journal.pone.0198602,2018,journal-article,340,Public Library of Science (PLoS)
10.1371/journal.pone.0185596,2017,journal-article,340,Public Library of Science (PLoS)
10.1371/journal.pcbi.1007332,2019,journal-article,340,Public Library of Science (PLoS)
10.1371/journal.pone.0089618,2014,journal-article,340,Public Library of Science (PLoS)
10.1371/journal.pone.0109490,2014,journal-article,340,Public Library of Science (PLoS)
10.1371/journal.pntd.0005608,2017,journal-article,340,Public Library of Science (PLoS)
10.1371/journal.pgen.1000689,2009,journal-article,340,Public Library of Science (PLoS)
10.1371/journal.pntd.0005341,2017,journal-article,340,Public Library of Science (PLoS)
10.1371/journal.pone.0190912,2018,journal-article,340,Public Library of Science (PLoS)
10.1371/journal.pone.0123619,2015,journal-article,340,Public Library of Science (PLoS)
10.1371/journal.pone.0228143,2020,journal-article,340,Public Library of Science (PLoS)
10.1371/journal.pone.0142712,2015,journal-article,340,Public Library of Science (PLoS)
10.1371/journal.pone.0136268,2015,journal-article,340,Public Library of Science (PLoS)
10.1371/journal.pntd.0004731,2016,journal-article,340,Public Library of Science (PLoS)
10.1371/journal.pone.0106256,2014,journal-article,340,Public Library of Science (PLoS)
10.1371/journal.pone.0024420,2011,journal-article,340,Public Library of Science (PLoS)
10.1371/journal.pone.0163512,2016,journal-article,340,Public Library of Science (PLoS)
10.1371/journal.pone.0112871,2014,journal-article,340,Public Library of Science (PLoS)
10.1371/journal.pone.0149243,2016,journal-article,340,Public Library of Science (PLoS)
10.1371/journal.pgen.1003370,2013,journal-article,340,Public Library of Science (PLoS)
10.1371/journal.pone.0041524,2012,journal-article,340,Public Library of Science (PLoS)
10.1371/journal.pone.0080503,2013,journal-article,340,Public Library of Science (PLoS)
10.1371/journal.pgen.1008293,2019,journal-article,340,Public Library of Science (PLoS)
10.1371/journal.ppat.1001070,2010,journal-article,340,Public Library of Science (PLoS)
10.1371/journal.pone.0102975,2014,journal-article,340,Public Library of Science (PLoS)
10.1371/journal.pone.0066386,2013,journal-article,340,Public Library of Science (PLoS)
10.1371/journal.pone.0239203,2020,journal-article,340,Public Library of Science (PLoS)
10.1371/journal.pone.0033485,2012,journal-article,340,Public Library of Science (PLoS)
10.1371/journal.pone.0231416,2020,journal-article,340,Public Library of Science (PLoS)
10.1371/journal.pone.0155535,2016,journal-article,340,Public Library of Science (PLoS)
10.1371/journal.pone.0240191,2020,journal-article,340,Public Library of Science (PLoS)
10.1371/journal.pone.0205788,2018,journal-article,340,Public Library of Science (PLoS)
10.1371/journal.pone.0218566,2019,journal-article,340,Public Library of Science (PLoS)
10.1371/journal.pone.0223770,2019,journal-article,340,Public Library of Science (PLoS)
10.1371/journal.pone.0174648,2017,journal-article,340,Public Library of Science (PLoS)
10.1371/journal.pone.0196580,2018,journal-article,340,Public Library of Science (PLoS)
10.1371/journal.pone.0116853,2015,journal-article,340,Public Library of Science (PLoS)
10.1371/journal.pone.0145827,2015,journal-article,340,Public Library of Science (PLoS)
10.1371/journal.pgen.1000917,2010,journal-article,340,Public Library of Science (PLoS)
10.1371/journal.pcbi.1003259,2013,journal-article,340,Public Library of Science (PLoS)
10.1371/journal.pone.0191026,2018,journal-article,340,Public Library of Science (PLoS)
10.1371/journal.pone.0206571,2018,journal-article,340,Public Library of Science (PLoS)
10.1371/journal.pone.0073538,2013,journal-article,340,Public Library of Science (PLoS)
10.1371/journal.pgen.1004838,2014,journal-article,340,Public Library of Science (PLoS)
10.1371/journal.pone.0032478,2012,journal-article,340,Public Library of Science (PLoS)
10.1371/journal.pone.0103095,2014,journal-article,340,Public Library of Science (PLoS)
10.1371/journal.pone.0169152,2017,journal-article,340,Public Library of Science (PLoS)
10.1371/journal.pgen.1007595,2018,journal-article,340,Public Library of Science (PLoS)
10.1371/journal.pcbi.1006765,2019,journal-article,340,Public Library of Science (PLoS)
10.1371/journal.pone.0152907,2016,journal-article,340,Public Library of Science (PLoS)
10.1371/journal.pntd.0005307,2017,journal-article,340,Public Library of Science (PLoS)
10.1371/journal.pgen.1003467,2013,journal-article,340,Public Library of Science (PLoS)
10.1371/journal.pone.0174688,2017,journal-article,340,Public Library of Science (PLoS)
10.1371/journal.pone.0236994,2020,journal-article,340,Public Library of Science (PLoS)
10.1371/journal.pone.0148509,2016,journal-article,340,Public Library of Science (PLoS)
10.1371/journal.pone.0019494,2011,journal-article,340,Public Library of Science (PLoS)
10.1371/journal.pone.0084665,2014,journal-article,340,Public Library of Science (PLoS)
10.1371/journal.pone.0088164,2014,journal-article,340,Public Library of Science (PLoS)
10.1371/journal.pone.0230460,2020,journal-article,340,Public Library of Science (PLoS)
10.1371/journal.pone.0166323,2016,journal-article,340,Public Library of Science (PLoS)
10.1371/journal.pntd.0000473,2009,journal-article,340,Public Library of Science (PLoS)
10.1371/journal.pone.0087438,2014,journal-article,340,Public Library of Science (PLoS)
10.1371/journal.pone.0212989,2019,journal-article,340,Public Library of Science (PLoS)
10.1371/journal.pone.0174716,2017,journal-article,340,Public Library of Science (PLoS)
10.1371/journal.pone.0103510,2014,journal-article,340,Public Library of Science (PLoS)
10.1371/journal.pone.0242257,2021,journal-article,340,Public Library of Science (PLoS)
10.1371/journal.pone.0182388,2017,journal-article,340,Public Library of Science (PLoS)
10.1371/journal.pone.0152385,2016,journal-article,340,Public Library of Science (PLoS)
10.1371/journal.pone.0256589,2021,journal-article,340,Public Library of Science (PLoS)
10.1371/journal.pone.0215174,2019,journal-article,340,Public Library of Science (PLoS)
10.1371/journal.pone.0242868,2020,journal-article,340,Public Library of Science (PLoS)
10.1371/journal.ppat.1001247,2011,journal-article,340,Public Library of Science (PLoS)
10.1371/journal.pone.0098196,2014,journal-article,340,Public Library of Science (PLoS)
10.1371/journal.pone.0123851,2015,journal-article,340,Public Library of Science (PLoS)
10.1371/journal.pone.0050164,2012,journal-article,340,Public Library of Science (PLoS)
10.1371/journal.pone.0067424,2013,journal-article,340,Public Library of Science (PLoS)
10.1371/journal.pone.0042204,2012,journal-article,340,Public Library of Science (PLoS)
10.1371/journal.pone.0066248,2013,journal-article,340,Public Library of Science (PLoS)
10.1371/journal.pone.0036119,2012,journal-article,340,Public Library of Science (PLoS)
10.1371/journal.pone.0098109,2014,journal-article,340,Public Library of Science (PLoS)
10.1371/journal.pone.0149450,2016,journal-article,340,Public Library of Science (PLoS)
10.1371/journal.pone.0035027,2012,journal-article,340,Public Library of Science (PLoS)
10.1371/journal.pmed.0030088,2006,journal-article,340,Public Library of Science (PLoS)
10.1371/journal.pone.0250346,2021,journal-article,340,Public Library of Science (PLoS)
